%YAML 1.1
%TAG !u! tag:unity3d.com,2011:
--- !u!114 &11400000
MonoBehaviour:
  m_ObjectHideFlags: 0
  m_CorrespondingSourceObject: {fileID: 0}
  m_PrefabInstance: {fileID: 0}
  m_PrefabAsset: {fileID: 0}
  m_GameObject: {fileID: 0}
  m_Enabled: 1
  m_EditorHideFlags: 0
  m_Script: {fileID: 11500000, guid: 6cae7cacbb200f748882fbd9daab6fec, type: 3}
  m_Name: GreenSeed
  m_EditorClassIdentifier: 
  id: 0
  keyName: Collectible_Title_1
  keyDescription: Collectible_Text_1
  redVersion: {fileID: 21300000, guid: 5d414441fbd49a74fbce55fb33fcb612, type: 3}
  greenVersion: {fileID: 21300000, guid: 5d414441fbd49a74fbce55fb33fcb612, type: 3}
  redIcon: {fileID: 21300000, guid: c8c078ef99a2e2a4eb0d0c067b8f1edc, type: 3}
  greenIcon: {fileID: 21300000, guid: c8c078ef99a2e2a4eb0d0c067b8f1edc, type: 3}
