%YAML 1.1
%TAG !u! tag:unity3d.com,2011:
--- !u!114 &11400000
MonoBehaviour:
  m_ObjectHideFlags: 0
  m_CorrespondingSourceObject: {fileID: 0}
  m_PrefabInstance: {fileID: 0}
  m_PrefabAsset: {fileID: 0}
  m_GameObject: {fileID: 0}
  m_Enabled: 1
  m_EditorHideFlags: 0
  m_Script: {fileID: 11500000, guid: 6cae7cacbb200f748882fbd9daab6fec, type: 3}
  m_Name: Middlemist Red
  m_EditorClassIdentifier: 
  id: 8
  keyName: Collectible_Title_8
  keyDescription: Collectible_Text_8
  redVersion: {fileID: 21300000, guid: 836743448eed22145bb56390fc3290ab, type: 3}
  greenVersion: {fileID: 21300000, guid: b393719fb00c41e4c81e957c45c8c454, type: 3}
  redIcon: {fileID: 21300000, guid: 3248c8a00997f91459a290e5c58baf48, type: 3}
  greenIcon: {fileID: 21300000, guid: f5bf3ebbbbaa8344dbcc3d3db6ce15da, type: 3}
