%YAML 1.1
%TAG !u! tag:unity3d.com,2011:
--- !u!1045 &1
EditorBuildSettings:
  m_ObjectHideFlags: 0
  serializedVersion: 2
  m_Scenes:
  - enabled: 1
    path: Assets/Scenes/UI/Main Menu.unity
    guid: 8501e181abbdea9499f720896a76ff5b
  - enabled: 1
    path: Assets/Scenes/Cutscene/Intro.unity
    guid: 464eb96e4ce5ae44796edc08e8286010
  - enabled: 1
    path: Assets/Scenes/Alpha/Alpha Map Stage 0 + 1/Alpha Stage 0.unity
    guid: 7dc2b8683a8d5654c89e7d93eb15798b
  - enabled: 1
    path: Assets/Scenes/Cutscene/EndTutorial.unity
    guid: df154dedf4d94074db17670010771833
  - enabled: 1
    path: Assets/Scenes/Alpha/Alpha Map Stage 0 + 1/Alpha Stage 1.unity
    guid: 9d4a57856e90e7c419d65386fa979f5e
  - enabled: 1
    path: Assets/Scenes/Cutscene/IntroStage2.unity
    guid: c29f37cc30ef53d4a894d48bbdfd0a63
  - enabled: 1
    path: Assets/Scenes/Alpha/Alpha Map Stage 0 + 1/Beta Stage 2.unity
    guid: 68d6f563de9efef4aa32f59586529ec2
  - enabled: 1
    path: Assets/Scenes/Cutscene/IntroStage3.unity
    guid: 24291988398174a4d9dee49e756075f7
  - enabled: 1
    path: Assets/Scenes/Alpha/Alpha Map Stage 0 + 1/Beta Stage 3.unity
    guid: 327b576cfe8229a4db225455377a5701
  - enabled: 1
    path: Assets/Scenes/Cutscene/EndStage3.unity
    guid: 763ada15ad7fab54ab8bf80eebbe41bf
  - enabled: 1
    path: Assets/Scenes/Cutscene/LastIntro.unity
    guid: 7bd66b9dfca2dba46b37410a406933f0
  - enabled: 1
    path: Assets/Scenes/Alpha/Alpha Map Stage 0 + 1/Beta Final Stage.unity
    guid: 045f9977b32ed3845b7dafc92c636980
  - enabled: 1
    path: Assets/Scenes/Cutscene/Finale.unity
    guid: 34c509f1fc4cc39468b6556818a84473
  m_configObjects: {}
